Legacy Election Model — model_legacy • enightmodels
…
    Functions

model_legacy(): Combined model

model_legacy_total(): Total vote model

model_legacy_cand(): Candidate vote model

    Examples

now = lubridate::ymd_hms("2024-11-06 21:40:00 UTC")
d = filter_asof(nj, now)

model_legacy_total(d, past)
#> # A tibble: 33 × 16
#>    state election   jurisdiction contest district candidate party pred_type
#>    <fct> <date>     <fct>        <fct>      <int> <chr>     <chr> <chr>    
#>  1 NJ    2024-11-05 NJ           pres          NA NA        all   vote     
#>  2 NJ    2024-11-05 NJ           pres          NA NA        all   vote     
#>  3 NJ    2024-11-05 NJ           pres          NA NA        all   vote     
#>  4 NJ    2024-11-05 NJ           pres          NA NA        all   vote     
#>  5 NJ    2024-11-05 NJ           pres          NA NA        all   vote     
#>  6 NJ    2024-11-05 NJ           pres          NA NA        all   vote     
#>  7 NJ    2024-11-05 NJ           pres          NA NA        all   vote     
#>  8 NJ    2024-11-05 NJ           pres          NA NA        all   vote     
#>  9 NJ    2024-11-05 NJ           pres          NA NA        all   vote     
#> 10 NJ    2024-11-05 NJ           pres          NA NA        all   vote     
#> # ℹ 23 more rows
#> # ℹ 8 more variables: time <dttm>, model <chr>, pred <dbl>, stage <int>,
#> #   method <fct>, geo <fct>, geostratum <fct>, votes <dbl>
…
